{
	"includeBlanks" : false,
	"defaultMappingStatus" : true,
	"executionStrategy" : "ric-va-homeowners-v01-00-00-strategy.vtl",
	"preProcessor": "", 
	"postProcessor": "", 
	"keyValue": {
		 
	}, 
	"fieldMapping": {
		"Insured": {
			"*": true	
		}
	}
}